trade_company_west_africa = {
	color = { 50 0 200 }
	
	provinces = {
		
	}
	
	# Specific
	# Generic
	names = {
		name = "TRADE_COMPANY_WEST_AFRICA_Root_Culture_GetName"
	}
	names = {
		name = "TRADE_COMPANY_WEST_AFRICA_Africa_Trade_Company"
	}
}

trade_company_taychend = {
	color = { 200 200 50 }
	
	provinces = {
		2460 2461 2462 2463 2467 2466 2472 2464 2468 2607 2605 2604 2587 2586 2584 2573 2572 2465 2603 2591 2610 2470 2469 2474 2473 2477 2475 2478 2481 2480 2483 2486 2487 2485 2489 2479 2484 2490 
		2491 2494 2507 2504 2506 2552 2492 2554 2553 2555 2556 2493 2496 2497 2505 2498 2495 2551 2547 2499 2502 2500 2499 2502 2500 2511 2510 2508 2509 2514 2501 2540 2546 2539 2517 2534 2536 2518 2519 2520 2533 2535 2521 2541 2543 2544 2522 2532 2523 2531 2524 2561 2525 2545 2542 2530 2528 2529 2527 2558 2559 2560 2526 2562 2567 2566 2565 2570 2568 2571 2579 2578 2577 2574 2575 2576 2580 2581 2582 2550 2549 2537 2515 2588 2590 2589 2589 2583 2585 2613 2612 2611 
		2564 2329 2330 2513 
	}
	# Generic
	names = {
		name = "TRADE_COMPANY_TAYCHEND_Root_GetName"
	}
	names = {
		name = "TRADE_COMPANY_TAYCHEND_Taychend_Trade_Company"
	}
}